\beamer@endinputifotherversion {3.07pt}
\select@language {french}
\beamer@sectionintoc {1}{Titre de la section}{2}{0}{1}
\beamer@subsectionintoc {1}{1}{Titre de la sous-section 1}{2}{0}{1}
\beamer@subsectionintoc {1}{2}{Titre de la sous-section 2}{4}{0}{1}
