\relax 
\catcode `:\active 
\catcode `;\active 
\catcode `!\active 
\catcode `?\active 
\select@language{french}
\@writefile{toc}{\select@language{french}}
\@writefile{lof}{\select@language{french}}
\@writefile{lot}{\select@language{french}}
\@writefile{toc}{\contentsline {section}{\numberline {1}Introduction}{2}}
\@writefile{toc}{\contentsline {section}{\numberline {2}Description du projet}{2}}
\@writefile{toc}{\contentsline {subsection}{\numberline {2.1} Exigences fonctionnelles}{2}}
\@writefile{toc}{\contentsline {subsection}{\numberline {2.2} Exigences non fonctionnelles}{2}}
\@writefile{toc}{\contentsline {section}{\numberline {3}Contexe du projet}{2}}
\@writefile{toc}{\contentsline {subsection}{\numberline {3.1} Contetexe du projet}{2}}
\@writefile{toc}{\contentsline {subsection}{\numberline {3.2} Objetif du projet}{2}}
\@writefile{toc}{\contentsline {subsection}{\numberline {3.3} Description du projet}{2}}
\@writefile{toc}{\contentsline {section}{\numberline {4}Analyse et conception du projet}{2}}
\@writefile{toc}{\contentsline {subsection}{\numberline {4.1} Langage de mod\IeC {\'e}lisation}{2}}
\@writefile{toc}{\contentsline {subsection}{\numberline {4.2} Outil utilise pour la mod\IeC {\'e}lisation}{2}}
\@writefile{toc}{\contentsline {subsection}{\numberline {4.3} Diagramme de cas d\IeC {\textquoteright }utilisation}{2}}
\@writefile{toc}{\contentsline {subsubsection}{\numberline {4.3.1}Pour quoi le diagramme de cas d\IeC {\textquoteright }utilisation}{2}}
\@writefile{toc}{\contentsline {subsubsection}{\numberline {4.3.2}Gestion des invitations}{2}}
\@writefile{toc}{\contentsline {subsubsection}{\numberline {4.3.3}Gestion des micro-postes}{2}}
\@writefile{toc}{\contentsline {subsubsection}{\numberline {4.3.4}Gestion des code sources}{2}}
\@writefile{toc}{\contentsline {subsubsection}{\numberline {4.3.5}Gestion de contr\IeC {\^o}le du compte des utilisateurs}{2}}
\@writefile{toc}{\contentsline {subsection}{\numberline {4.4} Diagramme de classes}{2}}
\@writefile{toc}{\contentsline {subsubsection}{\numberline {4.4.1}Pourquoi le diagramme de classe}{2}}
\@writefile{toc}{\contentsline {subsubsection}{\numberline {4.4.2}R\IeC {\`e}gle de gestion}{2}}
\@writefile{toc}{\contentsline {subsubsection}{\numberline {4.4.3}Repr\IeC {\'e}sentation du diagramme de classe}{2}}
\@writefile{toc}{\contentsline {subsection}{\numberline {4.5} Diagramme de s\IeC {\'e}quences}{2}}
\@writefile{toc}{\contentsline {subsubsection}{\numberline {4.5.1}D\IeC {\'e}finition}{2}}
\@writefile{toc}{\contentsline {subsubsection}{\numberline {4.5.2}Diagramme de s\IeC {\'e}quence d\IeC {\textquoteright }inscription}{2}}
\@writefile{toc}{\contentsline {subsubsection}{\numberline {4.5.3}Diagramme de s\IeC {\'e}quence d\IeC {\textquoteright }authentification}{2}}
\@writefile{toc}{\contentsline {subsubsection}{\numberline {4.5.4}Diagramme de s\IeC {\'e}quence des invitations}{2}}
\@writefile{toc}{\contentsline {subsubsection}{\numberline {4.5.5}Diagramme de s\IeC {\'e}quence de partage des code sources }{2}}
\@writefile{toc}{\contentsline {section}{\numberline {5}Impl\IeC {\'e}mentation}{2}}
\@writefile{toc}{\contentsline {subsection}{\numberline {5.1} Les langages utilis\IeC {\'e}s}{2}}
\@writefile{toc}{\contentsline {subsection}{\numberline {5.2} Outils de d\IeC {\'e}veloppement}{2}}
\@writefile{toc}{\contentsline {subsection}{\numberline {5.3} Syst\IeC {\`e}me de gestion de stockage des donn\IeC {\'e}es}{2}}
\@writefile{toc}{\contentsline {subsection}{\numberline {5.4} Serveur utilise}{2}}
\@writefile{toc}{\contentsline {section}{\numberline {6}Pr\IeC {\'e}sentation de l\IeC {\textquoteright }application}{2}}
\@writefile{toc}{\contentsline {section}{\numberline {7}Conclusion}{2}}
\@writefile{toc}{\contentsline {section}{\numberline {8}R\IeC {\'e}f\IeC {\'e}rences et bibliographie}{2}}
\@writefile{toc}{\contentsline {section}{\numberline {9}Annexe}{2}}
