\relax 
\catcode `:\active 
\catcode `;\active 
\catcode `!\active 
\catcode `?\active 
\select@language{french}
\@writefile{toc}{\select@language{french}}
\@writefile{lof}{\select@language{french}}
\@writefile{lot}{\select@language{french}}
\@writefile{toc}{\contentsline {section}{\numberline {1}Le canard etait toujours vivant}{1}}
\@writefile{lof}{\contentsline {figure}{\numberline {1}{\ignorespaces {\emph  {Le joli chameau !!!}}}}{1}}
\newlabel{fig1}{{1}{1}}
